<?xml version="1.0" encoding="utf-8"?>
<COLLADA xmlns="http://www.collada.org/2005/11/COLLADASchema" version="1.4.1">
  <asset>
    <contributor>
      <author>Blender User</author>
      <authoring_tool>Blender 2.77.0 commit date:2016-04-05, commit time:18:12, hash:abf6f08</authoring_tool>
    </contributor>
    <created>2017-05-11T16:21:38</created>
    <modified>2017-05-11T16:21:38</modified>
    <unit name="meter" meter="1"/>
    <up_axis>Z_UP</up_axis>
  </asset>
  <library_images>
    <image id="PBRFULL_Hip-material_Base_Color_jpg" name="PBRFULL_Hip-material_Base_Color_jpg">
      <init_from>PBRFULL_Hip-material_Base_Color.jpg</init_from>
    </image>
  </library_images>
  <library_effects>
    <effect id="PBRFULL_Hip2-effect">
      <profile_COMMON>
        <newparam sid="PBRFULL_Hip-material_Base_Color_jpg-surface">
          <surface type="2D">
            <init_from>PBRFULL_Hip-material_Base_Color_jpg</init_from>
          </surface>
        </newparam>
        <newparam sid="PBRFULL_Hip-material_Base_Color_jpg-sampler">
          <sampler2D>
            <source>PBRFULL_Hip-material_Base_Color_jpg-surface</source>
          </sampler2D>
        </newparam>
        <technique sid="common">
          <phong>
            <emission>
              <color sid="emission">0 0 0 1</color>
            </emission>
            <ambient>
              <color sid="ambient">0 0 0 1</color>
            </ambient>
            <diffuse>
              <texture texture="PBRFULL_Hip-material_Base_Color_jpg-sampler"/>
            </diffuse>
            <specular>
              <color sid="specular">0.5 0.5 0.5 1</color>
            </specular>
            <shininess>
              <float sid="shininess">50</float>
            </shininess>
            <index_of_refraction>
              <float sid="index_of_refraction">1</float>
            </index_of_refraction>
          </phong>
        </technique>
      </profile_COMMON>
    </effect>
  </library_effects>
  <library_materials>
    <material id="PBRFULL_Hip2-material" name="PBRFULL_Hip2">
      <instance_effect url="#PBRFULL_Hip2-effect"/>
    </material>
  </library_materials>
  <library_geometries>
    <geometry id="Cylinder_000-mesh" name="Cylinder.000">
      <mesh>
        <source id="Cylinder_000-mesh-positions">
          <float_array id="Cylinder_000-mesh-positions-array" count="198">0 0 -0.03749996 0.01186317 0.02864021 -0.03749996 0 0.03099983 -0.03749996 -0.01186317 0.02864027 -0.03749996 -0.02192026 0.02192026 -0.03749996 -0.02864027 0.01186317 -0.03749996 -0.03099983 0 -0.03749996 -0.02864027 -0.01186317 -0.03749996 -0.02192026 -0.02192026 -0.03749996 -0.01186317 -0.02864027 -0.03749996 0 -0.03099983 -0.03749996 0.01186317 -0.02864027 -0.03749996 0.02192026 -0.02192026 -0.03749996 0.02864027 -0.01186317 -0.03749996 0.03099983 0 -0.03749996 0.02864027 0.01186317 -0.03749996 0.02192026 0.02192026 -0.03749996 0 0 0.03749996 0.01186323 0.02864021 0.03749996 0 0.03099983 0.03749996 -0.01186305 0.02864027 0.03749996 -0.0219202 0.02192032 0.03749996 -0.02864021 0.01186323 0.03749996 -0.03099983 0 0.03749996 -0.02864027 -0.01186311 0.03749996 -0.02192032 -0.02192026 0.03749996 -0.01186323 -0.02864021 0.03749996 0 -0.03099983 0.03749996 0.01186311 -0.02864027 0.03749996 0.02192026 -0.02192032 0.03749996 0.02864021 -0.01186317 0.03749996 0.03099983 0 0.03749996 0.02864027 0.01186311 0.03749996 0.02192032 0.02192026 0.03749996 0.02192026 0.02192026 -0.03749996 0.02864027 0.01186317 -0.03749996 0.03099983 0 -0.03749996 0.02864027 -0.01186317 -0.03749996 0.02192026 -0.02192026 -0.03749996 0.01186317 -0.02864027 -0.03749996 0 -0.03099983 -0.03749996 -0.01186317 -0.02864027 -0.03749996 -0.02192026 -0.02192026 -0.03749996 -0.02864027 -0.01186317 -0.03749996 -0.03099983 0 -0.03749996 -0.02864027 0.01186317 -0.03749996 -0.02192026 0.02192026 -0.03749996 -0.01186317 0.02864027 -0.03749996 0 0.03099983 -0.03749996 0.01186317 0.02864021 -0.03749996 0.02192032 0.02192026 0.03749996 0.02864027 0.01186311 0.03749996 0.03099983 0 0.03749996 0.02864021 -0.01186317 0.03749996 0.02192026 -0.02192032 0.03749996 0.01186311 -0.02864027 0.03749996 0 -0.03099983 0.03749996 -0.01186323 -0.02864021 0.03749996 -0.02192032 -0.02192026 0.03749996 -0.02864027 -0.01186311 0.03749996 -0.03099983 0 0.03749996 -0.02864021 0.01186323 0.03749996 -0.0219202 0.02192032 0.03749996 -0.01186305 0.02864027 0.03749996 0 0.03099983 0.03749996 0.01186323 0.02864021 0.03749996</float_array>
          <technique_common>
            <accessor source="#Cylinder_000-mesh-positions-array" count="66" stride="3">
              <param name="X" type="float"/>
              <param name="Y" type="float"/>
              <param name="Z" type="float"/>
            </accessor>
          </technique_common>
        </source>
        <source id="Cylinder_000-mesh-normals">
          <float_array id="Cylinder_000-mesh-normals-array" count="84">0.7071068 0.7071068 0 0.9238803 0.3826816 0 1 0 0 0.9238803 -0.3826816 0 0.7071068 -0.7071068 0 0.3826816 -0.9238803 0 0 -1 0 -0.3826816 -0.9238803 0 -0.7071068 -0.7071068 0 -0.9238803 -0.3826816 0 -1 0 0 -0.9238803 0.3826816 0 -0.7071068 0.7071068 0 -0.3826816 0.9238803 0 0 1 0 0.3826816 0.9238803 0 0 0 -1 0 0 -1 0 0 -1 1.58277e-7 0 1 0 0 1 0 0 1 1.58277e-7 0 1 -1.58277e-7 0 1 -1.58277e-7 0 1 0 0 1 -1.58277e-7 0 1 1.58277e-7 0 1</float_array>
          <technique_common>
            <accessor source="#Cylinder_000-mesh-normals-array" count="28" stride="3">
              <param name="X" type="float"/>
              <param name="Y" type="float"/>
              <param name="Z" type="float"/>
            </accessor>
          </technique_common>
        </source>
        <source id="Cylinder_000-mesh-map-0">
          <float_array id="Cylinder_000-mesh-map-0-array" count="384">0.167707 0.842994 0.09060686 0.7213191 0.1384565 0.7015357 0.1717109 0.8409515 0.05386173 0.7579811 0.09060686 0.7213191 0.1745516 0.8374922 0.03390449 0.8059391 0.05386173 0.7579811 0.1758041 0.8331736 0.03380388 0.8578712 0.03390449 0.8059391 0.1752745 0.8286679 0.05357342 0.9058559 0.03380388 0.8578712 0.173031 0.8246747 0.09018963 0.9425823 0.05357342 0.9058559 0.1694044 0.8218197 0.1380593 0.9624571 0.09018963 0.9425823 0.1649442 0.8205543 0.1898733 0.9624571 0.1380593 0.9624571 0.1603349 0.8210802 0.2377185 0.9425918 0.1898733 0.9624571 0.1562862 0.8233152 0.2742919 0.9059063 0.2377185 0.9425918 0.1533918 0.8267889 0.294086 0.8579353 0.2742919 0.9059063 0.15211 0.831032 0.2940639 0.805989 0.294086 0.8579353 0.152652 0.8354303 0.2742337 0.7580319 0.2940639 0.805989 0.1549345 0.8392985 0.237677 0.721376 0.2742337 0.7580319 0.1586164 0.8420763 0.189978 0.7015542 0.237677 0.721376 0.1384565 0.7015357 0.1631628 0.8432479 0.167707 0.842994 0.1962047 0.6747215 0.1654017 0.8295826 0.1345972 0.6747217 0.1654017 0.8295826 0.07767951 0.6982985 0.1345972 0.6747217 0.1654017 0.8295826 0.03411632 0.7418614 0.07767951 0.6982985 0.1654017 0.8295826 0.01054066 0.7987796 0.03411632 0.7418614 0.1654017 0.8295826 0.01054066 0.8603873 0.01054066 0.7987796 0.1654017 0.8295826 0.03411757 0.9173049 0.01054066 0.8603873 0.1654017 0.8295826 0.07768046 0.9608681 0.03411757 0.9173049 0.1654017 0.8295826 0.1345988 0.9844437 0.07768046 0.9608681 0.1654017 0.8295826 0.1962065 0.9844437 0.1345988 0.9844437 0.1654017 0.8295826 0.2531241 0.9608668 0.1962065 0.9844437 0.1654017 0.8295826 0.2966873 0.9173039 0.2531241 0.9608668 0.1654017 0.8295826 0.3202629 0.8603855 0.2966873 0.9173039 0.1654017 0.8295826 0.3202629 0.7987779 0.3202629 0.8603855 0.1654017 0.8295826 0.296686 0.7418603 0.3202629 0.7987779 0.1654017 0.8295826 0.2531231 0.6982972 0.296686 0.7418603 0.1654017 0.8295826 0.1962047 0.6747215 0.2531231 0.6982972 0.1778033 0.8197163 0.2086071 0.9745774 0.1469996 0.9745774 0.1778033 0.8197163 0.1469996 0.9745774 0.09008163 0.9510008 0.1778033 0.8197163 0.09008163 0.9510008 0.04651874 0.9074384 0.1778033 0.8197163 0.04651874 0.9074384 0.02294248 0.8505203 0.1778033 0.8197163 0.02294248 0.8505203 0.02294224 0.7889126 0.1778033 0.8197163 0.02294224 0.7889126 0.04651898 0.7319945 0.1778033 0.8197163 0.04651898 0.7319945 0.09008145 0.6884314 0.1778033 0.8197163 0.09008145 0.6884314 0.1469995 0.6648551 0.1778033 0.8197163 0.1469995 0.6648551 0.208607 0.6648551 0.1778033 0.8197163 0.208607 0.6648551 0.2655252 0.6884318 0.1778033 0.8197163 0.2655252 0.6884318 0.3090884 0.7319943 0.1778033 0.8197163 0.3090884 0.7319943 0.3326646 0.7889125 0.1778033 0.8197163 0.3326646 0.7889125 0.3326644 0.8505203 0.1778033 0.8197163 0.3326644 0.8505203 0.3090879 0.907438 0.1778033 0.8197163 0.3090879 0.907438 0.2655254 0.9510012 0.1778033 0.8197163 0.2655254 0.9510012 0.2086071 0.9745774 0.167707 0.842994 0.1717109 0.8409515 0.09060686 0.7213191 0.1717109 0.8409515 0.1745516 0.8374922 0.05386173 0.7579811 0.1745516 0.8374922 0.1758041 0.8331736 0.03390449 0.8059391 0.1758041 0.8331736 0.1752745 0.8286679 0.03380388 0.8578712 0.1752745 0.8286679 0.173031 0.8246747 0.05357342 0.9058559 0.173031 0.8246747 0.1694044 0.8218197 0.09018963 0.9425823 0.1694044 0.8218197 0.1649442 0.8205543 0.1380593 0.9624571 0.1649442 0.8205543 0.1603349 0.8210802 0.1898733 0.9624571 0.1603349 0.8210802 0.1562862 0.8233152 0.2377185 0.9425918 0.1562862 0.8233152 0.1533918 0.8267889 0.2742919 0.9059063 0.1533918 0.8267889 0.15211 0.831032 0.294086 0.8579353 0.15211 0.831032 0.152652 0.8354303 0.2940639 0.805989 0.152652 0.8354303 0.1549345 0.8392985 0.2742337 0.7580319 0.1549345 0.8392985 0.1586164 0.8420763 0.237677 0.721376 0.1586164 0.8420763 0.1631628 0.8432479 0.189978 0.7015542 0.1384565 0.7015357 0.189978 0.7015542 0.1631628 0.8432479</float_array>
          <technique_common>
            <accessor source="#Cylinder_000-mesh-map-0-array" count="192" stride="2">
              <param name="S" type="float"/>
              <param name="T" type="float"/>
            </accessor>
          </technique_common>
        </source>
        <vertices id="Cylinder_000-mesh-vertices">
          <input semantic="POSITION" source="#Cylinder_000-mesh-positions"/>
        </vertices>
        <polylist material="PBRFULL_Hip2-material" count="64">
          <input semantic="VERTEX" source="#Cylinder_000-mesh-vertices" offset="0"/>
          <input semantic="NORMAL" source="#Cylinder_000-mesh-normals" offset="1"/>
          <input semantic="TEXCOORD" source="#Cylinder_000-mesh-map-0" offset="2" set="0"/>
          <vcount>3 3 3 3 3 3 3 3 3 3 3 3 3 3 3 3 3 3 3 3 3 3 3 3 3 3 3 3 3 3 3 3 3 3 3 3 3 3 3 3 3 3 3 3 3 3 3 3 3 3 3 3 3 3 3 3 3 3 3 3 3 3 3 3 </vcount>
          <p>50 0 0 35 1 1 34 0 2 51 1 3 36 2 4 35 1 5 52 2 6 37 3 7 36 2 8 53 3 9 38 4 10 37 3 11 54 4 12 39 5 13 38 4 14 55 5 15 40 6 16 39 5 17 56 6 18 41 7 19 40 6 20 57 7 21 42 8 22 41 7 23 58 8 24 43 9 25 42 8 26 59 9 27 44 10 28 43 9 29 60 10 30 45 11 31 44 10 32 61 11 33 46 12 34 45 11 35 62 12 36 47 13 37 46 12 38 63 13 39 48 14 40 47 13 41 64 14 42 49 15 43 48 14 44 34 0 45 65 15 46 50 0 47 16 16 48 0 16 49 1 16 50 0 16 51 2 16 52 1 16 53 0 17 54 3 17 55 2 17 56 0 16 57 4 16 58 3 16 59 0 16 60 5 16 61 4 16 62 0 16 63 6 16 64 5 16 65 0 16 66 7 16 67 6 16 68 0 16 69 8 16 70 7 16 71 0 16 72 9 16 73 8 16 74 0 17 75 10 17 76 9 17 77 0 18 78 11 18 79 10 18 80 0 16 81 12 16 82 11 16 83 0 16 84 13 16 85 12 16 86 0 16 87 14 16 88 13 16 89 0 16 90 15 16 91 14 16 92 0 16 93 16 16 94 15 16 95 17 19 96 33 19 97 18 19 98 17 20 99 18 20 100 19 20 101 17 21 102 19 21 103 20 21 104 17 22 105 20 22 106 21 22 107 17 23 108 21 23 109 22 23 110 17 20 111 22 20 112 23 20 113 17 20 114 23 20 115 24 20 116 17 20 117 24 20 118 25 20 119 17 24 120 25 24 121 26 24 122 17 20 123 26 20 124 27 20 125 17 25 126 27 25 127 28 25 128 17 26 129 28 26 130 29 26 131 17 27 132 29 27 133 30 27 134 17 20 135 30 20 136 31 20 137 17 20 138 31 20 139 32 20 140 17 20 141 32 20 142 33 20 143 50 0 144 51 1 145 35 1 146 51 1 147 52 2 148 36 2 149 52 2 150 53 3 151 37 3 152 53 3 153 54 4 154 38 4 155 54 4 156 55 5 157 39 5 158 55 5 159 56 6 160 40 6 161 56 6 162 57 7 163 41 7 164 57 7 165 58 8 166 42 8 167 58 8 168 59 9 169 43 9 170 59 9 171 60 10 172 44 10 173 60 10 174 61 11 175 45 11 176 61 11 177 62 12 178 46 12 179 62 12 180 63 13 181 47 13 182 63 13 183 64 14 184 48 14 185 64 14 186 65 15 187 49 15 188 34 0 189 49 15 190 65 15 191</p>
        </polylist>
      </mesh>
    </geometry>
  </library_geometries>
  <library_controllers/>
  <library_visual_scenes>
    <visual_scene id="Scene" name="Scene">
      <node id="l_hip_2" name="l_hip_2" type="NODE">
        <matrix sid="transform">1 0 0 0 0 1 0 0 0 0 1 0 0 0 0 1</matrix>
        <node id="l_hip_2_mesh" name="l_hip_2_mesh" type="NODE">
          <matrix sid="transform">1 0 0 0 0 1 0 0 0 0 1 0 0 0 0 1</matrix>
          <instance_geometry url="#Cylinder_000-mesh" name="l_hip_2_mesh">
            <bind_material>
              <technique_common>
                <instance_material symbol="PBRFULL_Hip2-material" target="#PBRFULL_Hip2-material"/>
              </technique_common>
            </bind_material>
          </instance_geometry>
        </node>
      </node>
    </visual_scene>
  </library_visual_scenes>
  <scene>
    <instance_visual_scene url="#Scene"/>
  </scene>
</COLLADA>